{"links": {"next": "http://www.manchesterproteome.manchester.ac.uk/run_api/MSP_api/?page=2&search=", "previous": null}, "count": 3182, "total_pages": 128, "results": [{"Uniprot_ID": "1433B_HUMAN", "ProteinName": "14-3-3 protein beta/alpha", "UniProtAccession": "P31946", "ExperimentalEvidence": "Mass Spectrometry, Immunohistochemistry", "GeneName": "YWHAB", "SkinSite": "Breast", "ProteinLocation": "Dermal/Epidermal", "Age": "", "Sex": "B", "AssociatedDisease_Mutation": "", "DOI": "10.1074/mcp.M700334-MCP200, 10.1186/s12575-016-0045-y, http://www.proteinatlas.org/ENSG00000166913-YWHAB/tissue/skin", "QualityRating": "**", "Frequency": "", "Subcellular_location_final": "intracellular", "Uniprot_AC": "   P31946; A8K9K2; E1P616;", "Protein_Evidence": [{"DOI": "10.1074/mcp.M700334-MCP200"}, {"DOI": "10.1186/s12575-016-0045-y"}, {"DOI": "http://www.proteinatlas.org/ENSG00000166913-YWHAB/tissue/skin"}], "Protein_Quant": [{"Epidermis": {"Fold": 2.02, "p val": 0.0349253338, "Buttock": {"20180601_SherrattM_MO_01": 134988.41368241, "20180601_SherrattM_MO_03": 72455.5007067165, "20180601_SherrattM_MO_05": 170895.663204487, "20180601_SherrattM_MO_07": 182460.495283341, "20180601_SherrattM_MO_09": 33817.8549302084, "20180601_SherrattM_MO_11": 305290.981481925, "20180601_SherrattM_MO_13": 176863.855787517}, "Forearm": {"20180601_SherrattM_MO_02": 95985.1980206232, "20180601_SherrattM_MO_04": 44621.3514571502, "20180601_SherrattM_MO_06": 60971.9743340146, "20180601_SherrattM_MO_08": 104977.758399679, "20180601_SherrattM_MO_10": 55583.6673545647, "20180601_SherrattM_MO_12": 105014.074188094, "20180601_SherrattM_MO_14": 65477.3073494286}}, "Dermis": {"Fold": "1.86", "p val": 0.0017324207, "Buttock": {"20180601_SherrattM_MO_15": 1265744.69308899, "20180601_SherrattM_MO_17": 1725913.29432272, "20180601_SherrattM_MO_19": 1588855.45522718, "20180601_SherrattM_MO_21": 2055070.10398431, "20180601_SherrattM_MO_23": 1452114.60640763, "20180601_SherrattM_MO_25": 3306229.74486112, "20180601_SherrattM_MO_27": 2472982.26795494}, "Forearm": {"20180601_SherrattM_MO_16": 3031118.18441884, "20180601_SherrattM_MO_18": 2938680.27614292, "20180601_SherrattM_MO_20": 2542036.31830459, "20180601_SherrattM_MO_22": 4840176.3047168, "20180601_SherrattM_MO_24": 2895033.92286881, "20180601_SherrattM_MO_26": 3442481.72074169, "20180601_SherrattM_MO_28": 6057160.52085676}}}], "Protein_Alt": [{"Names": "14-3-3 protein beta/alpha"}, {"Names": "Protein 1054"}, {"Names": "Protein kinase C inhibitor protein 1"}, {"Names": "KCIP-1"}, {"Names": "14-3-3 protein beta/alpha, N-terminally processed"}, {"Names": "YWHAB"}], "Bliss": true, "Photoageing_Significant": true}, {"Uniprot_ID": "1433E_HUMAN", "ProteinName": "14-3-3 protein epsilon", "UniProtAccession": "P62258", "ExperimentalEvidence": "Mass Spectrometry, Western Blotting, Immunohistochemistry", "GeneName": "YWHAE", "SkinSite": "Breast, forehead, face", "ProteinLocation": "Dermal/Epidermal", "Age": "23", "Sex": "B", "AssociatedDisease_Mutation": "congenital melanocytic nevus", "DOI": "10.1074/mcp.M700334-MCP200, 10.1186/1477-5956-10-50, http://www.proteinatlas.org/ENSG00000108953-YWHAE/tissue/skin", "QualityRating": "***", "Frequency": "", "Subcellular_location_final": "intracellular", "Uniprot_AC": "   P62258; B3KY71; D3DTH5; P29360; P42655; Q4VJB6; Q53XZ5; Q63631;   Q7M4R4;", "Protein_Evidence": [{"DOI": "10.1074/mcp.M700334-MCP200"}, {"DOI": "10.1186/1477-5956-10-50"}, {"DOI": "http://www.proteinatlas.org/ENSG00000108953-YWHAE/tissue/skin"}], "Protein_Quant": [{"Epidermis": {"Fold": 2.19, "p val": 0.0028948821, "Buttock": {"20180601_SherrattM_MO_01": 381542.797337428, "20180601_SherrattM_MO_03": 233322.742521393, "20180601_SherrattM_MO_05": 515121.334162166, "20180601_SherrattM_MO_07": 522857.414286255, "20180601_SherrattM_MO_09": 166597.03549137, "20180601_SherrattM_MO_11": 939515.550226841, "20180601_SherrattM_MO_13": 782740.512782782}, "Forearm": {"20180601_SherrattM_MO_02": 250562.95747919, "20180601_SherrattM_MO_04": 126067.007613374, "20180601_SherrattM_MO_06": 198680.561676326, "20180601_SherrattM_MO_08": 185516.087192761, "20180601_SherrattM_MO_10": 166746.962225573, "20180601_SherrattM_MO_12": 406224.134724665, "20180601_SherrattM_MO_14": 283124.629957117}}, "Dermis": {"Fold": "1.69", "p val": 0.0517302486, "Buttock": {"20180601_SherrattM_MO_15": 388471.006253191, "20180601_SherrattM_MO_17": 440296.470725056, "20180601_SherrattM_MO_19": 422191.944348854, "20180601_SherrattM_MO_21": 1925580.98571321, "20180601_SherrattM_MO_23": 1174758.60257302, "20180601_SherrattM_MO_25": 668373.250710037, "20180601_SherrattM_MO_27": 1872675.09997486}, "Forearm": {"20180601_SherrattM_MO_16": 1070737.30846118, "20180601_SherrattM_MO_18": 869645.480145126, "20180601_SherrattM_MO_20": 799023.300737635, "20180601_SherrattM_MO_22": 1195056.69526368, "20180601_SherrattM_MO_24": 1123420.96202429, "20180601_SherrattM_MO_26": 1487679.59616285, "20180601_SherrattM_MO_28": 5091117.96559114}}}], "Protein_Alt": [{"Names": "14-3-3 protein epsilon"}, {"Names": "14-3-3E"}, {"Names": "YWHAE"}], "Bliss": true, "Photoageing_Significant": true}, {"Uniprot_ID": "1433F_HUMAN", "ProteinName": "14-3-3 protein eta", "UniProtAccession": "Q04917", "ExperimentalEvidence": "Mass Spectrometry, Immunohistochemistry", "GeneName": "YWHAH", "SkinSite": "Breast", "ProteinLocation": "Dermal/Epidermal", "Age": "", "Sex": "F", "AssociatedDisease_Mutation": "", "DOI": "10.1074/mcp.M700334-MCP200, 10.1371/journal.pone.0097772, http://www.proteinatlas.org/ENSG00000128245-YWHAH/tissue/skin", "QualityRating": "**", "Frequency": "1", "Subcellular_location_final": "Not known (no GO terms associated)", "Uniprot_AC": "   Q04917;", "Protein_Evidence": [{"DOI": "10.1074/mcp.M700334-MCP200"}, {"DOI": "10.1371/journal.pone.0097772"}, {"DOI": "http://www.proteinatlas.org/ENSG00000128245-YWHAH/tissue/skin"}], "Protein_Quant": [{"Epidermis": null, "Dermis": {"Fold": "1.10", "p val": 0.9733573444, "Buttock": {"20180601_SherrattM_MO_15": 78919557.2428041, "20180601_SherrattM_MO_17": 92548926.9011793, "20180601_SherrattM_MO_19": 81239919.5696197, "20180601_SherrattM_MO_21": 46834035.7593433, "20180601_SherrattM_MO_23": 134950802.51632, "20180601_SherrattM_MO_25": 73228173.6271897, "20180601_SherrattM_MO_27": 125498685.749455}, "Forearm": {"20180601_SherrattM_MO_16": 39468850.6831664, "20180601_SherrattM_MO_18": 182221956.744454, "20180601_SherrattM_MO_20": 136293914.466836, "20180601_SherrattM_MO_22": 47432144.6948121, "20180601_SherrattM_MO_24": 59846299.8370462, "20180601_SherrattM_MO_26": 92830607.2681514, "20180601_SherrattM_MO_28": 140596844.377577}}}], "Protein_Alt": [{"Names": "14-3-3 protein eta"}, {"Names": "Protein AS1"}, {"Names": "YWHAH"}], "Bliss": true, "Photoageing_Significant": false}, {"Uniprot_ID": "1433G_HUMAN", "ProteinName": "14-3-3 protein gamma", "UniProtAccession": "P61981", "ExperimentalEvidence": "Mass Spectrometry, Immunohistochemistry", "GeneName": "YWHAG", "SkinSite": "Breast", "ProteinLocation": "Epidermal", "Age": "", "Sex": "B", "AssociatedDisease_Mutation": "", "DOI": "10.1074/mcp.M700334-MCP200, 10.1371/journal.pone.0097772, http://www.proteinatlas.org/ENSG00000170027-YWHAG/tissue/skin", "QualityRating": "**", "Frequency": "", "Subcellular_location_final": "intracellular", "Uniprot_AC": "   P61981; O70457; P35214; Q6FH52; Q9UDP2; Q9UN99;", "Protein_Evidence": [{"DOI": "10.1074/mcp.M700334-MCP200"}, {"DOI": "10.1371/journal.pone.0097772"}, {"DOI": "http://www.proteinatlas.org/ENSG00000170027-YWHAG/tissue/skin"}], "Protein_Quant": [{"Epidermis": {"Fold": 2.43, "p val": 0.0013959095, "Buttock": {"20180601_SherrattM_MO_01": 42972.3506360844, "20180601_SherrattM_MO_03": 21760.748960216, "20180601_SherrattM_MO_05": 50830.8303670849, "20180601_SherrattM_MO_07": 65199.1732774184, "20180601_SherrattM_MO_09": 21691.048519836, "20180601_SherrattM_MO_11": 114606.671697295, "20180601_SherrattM_MO_13": 98618.3471362089}, "Forearm": {"20180601_SherrattM_MO_02": 26012.6460014853, "20180601_SherrattM_MO_04": 13439.9452461718, "20180601_SherrattM_MO_06": 15291.020284054, "20180601_SherrattM_MO_08": 20178.3578374255, "20180601_SherrattM_MO_10": 16368.9308988776, "20180601_SherrattM_MO_12": 48062.6224529038, "20180601_SherrattM_MO_14": 31827.4262929322}}, "Dermis": {"Fold": "1.05", "p val": 0.6780739499, "Buttock": {"20180601_SherrattM_MO_15": 13452.9160758849, "20180601_SherrattM_MO_17": 13886.4011692655, "20180601_SherrattM_MO_19": 13093.7608086114, "20180601_SherrattM_MO_21": 51402.6349427626, "20180601_SherrattM_MO_23": 6331.3855593443, "20180601_SherrattM_MO_25": 44944.9076509672, "20180601_SherrattM_MO_27": 66930.9504813499}, "Forearm": {"20180601_SherrattM_MO_16": 20346.9032643314, "20180601_SherrattM_MO_18": 42885.5845804514, "20180601_SherrattM_MO_20": 5123.2052635259, "20180601_SherrattM_MO_22": 30418.9593416837, "20180601_SherrattM_MO_24": 20639.7165077121, "20180601_SherrattM_MO_26": 31446.7909297898, "20180601_SherrattM_MO_28": 69568.2631684614}}}], "Protein_Alt": [{"Names": "14-3-3 protein gamma"}, {"Names": "Protein kinase C inhibitor protein 1"}, {"Names": "KCIP-1"}, {"Names": "14-3-3 protein gamma, N-terminally processed"}, {"Names": "YWHAG"}], "Bliss": true, "Photoageing_Significant": true}, {"Uniprot_ID": "1433S_HUMAN", "ProteinName": "14-3-3 protein sigma", "UniProtAccession": "P31947", "ExperimentalEvidence": "Mass Spectrometry, Western Blotting, Immunohistochemistry", "GeneName": "SFN", "SkinSite": "Breast", "ProteinLocation": "Dermal/Epidermal", "Age": "", "Sex": "B", "AssociatedDisease_Mutation": "Keloid scarring", "DOI": "10.1074/mcp.M700334-MCP200, 10.1016/j.jaci.2010.10.033, 10.1111/j.1365-2133.2010.09660.x, http://www.proteinatlas.org/ENSG00000175793-SFN/tissue/skin", "QualityRating": "***", "Frequency": "1", "Subcellular_location_final": "extracellular", "Uniprot_AC": "   P31947; Q6FH30; Q6FH51; Q96DH0;", "Protein_Evidence": [{"DOI": "10.1074/mcp.M700334-MCP200"}, {"DOI": "10.1016/j.jaci.2010.10.033"}, {"DOI": "10.1111/j.1365-2133.2010.09660.x"}, {"DOI": "http://www.proteinatlas.org/ENSG00000175793-SFN/tissue/skin"}], "Protein_Quant": [{"Epidermis": {"Fold": 2.3, "p val": 0.0137318732, "Buttock": {"20180601_SherrattM_MO_01": 5414341.99102786, "20180601_SherrattM_MO_03": 3213404.81258303, "20180601_SherrattM_MO_05": 8941643.48685081, "20180601_SherrattM_MO_07": 10730695.2156186, "20180601_SherrattM_MO_09": 2440521.68636811, "20180601_SherrattM_MO_11": 13929919.4161376, "20180601_SherrattM_MO_13": 7818119.2337285}, "Forearm": {"20180601_SherrattM_MO_02": 4553157.06681015, "20180601_SherrattM_MO_04": 1952940.28772074, "20180601_SherrattM_MO_06": 3034677.36637146, "20180601_SherrattM_MO_08": 2922940.25188384, "20180601_SherrattM_MO_10": 2802750.05476148, "20180601_SherrattM_MO_12": 5379786.45220992, "20180601_SherrattM_MO_14": 2203675.06024496}}, "Dermis": {"Fold": "1.08", "p val": 0.6919331831, "Buttock": {"20180601_SherrattM_MO_15": 15505085.8071604, "20180601_SherrattM_MO_17": 15121910.5622181, "20180601_SherrattM_MO_19": 12297772.6235373, "20180601_SherrattM_MO_21": 21595134.3191256, "20180601_SherrattM_MO_23": 10092421.0442641, "20180601_SherrattM_MO_25": 27109486.1192156, "20180601_SherrattM_MO_27": 33343661.3217069}, "Forearm": {"20180601_SherrattM_MO_16": 12655493.9949215, "20180601_SherrattM_MO_18": 13617678.3864817, "20180601_SherrattM_MO_20": 12233296.3891078, "20180601_SherrattM_MO_22": 18298015.3701137, "20180601_SherrattM_MO_24": 18765903.7459654, "20180601_SherrattM_MO_26": 15464826.6627216, "20180601_SherrattM_MO_28": 34311085.395188}}}], "Protein_Alt": [{"Names": "14-3-3 protein sigma"}, {"Names": "Epithelial cell marker protein 1"}, {"Names": "Stratifin"}], "Bliss": true, "Photoageing_Significant": true}, {"Uniprot_ID": "1433T_HUMAN", "ProteinName": "14-3-3 protein theta", "UniProtAccession": "P27348", "ExperimentalEvidence": "Mass Spectrometry, Western Blotting, Immunohistochemistry", "GeneName": "YWHAQ", "SkinSite": "Breast, forehead, face", "ProteinLocation": "Dermal/Epidermal", "Age": "23", "Sex": "B", "AssociatedDisease_Mutation": "congenital melanocytic nevus", "DOI": "10.1074/mcp.M700334-MCP200, 10.1186/1477-5956-10-50, http://www.proteinatlas.org/ENSG00000134308-YWHAQ/tissue/skin", "QualityRating": "***", "Frequency": "", "Subcellular_location_final": "intracellular", "Uniprot_AC": "   P27348; D6W4Z5; Q567U5; Q5TZU8; Q9UP48;", "Protein_Evidence": [{"DOI": "10.1074/mcp.M700334-MCP200"}, {"DOI": "10.1186/1477-5956-10-50"}, {"DOI": "http://www.proteinatlas.org/ENSG00000134308-YWHAQ/tissue/skin"}], "Protein_Quant": [{"Epidermis": {"Fold": 1.3, "p val": 0.0225497634, "Buttock": {"20180601_SherrattM_MO_01": 638208.321389156, "20180601_SherrattM_MO_03": 512236.286327003, "20180601_SherrattM_MO_05": 747779.730585295, "20180601_SherrattM_MO_07": 654848.583308526, "20180601_SherrattM_MO_09": 658689.409087546, "20180601_SherrattM_MO_11": 949697.194735792, "20180601_SherrattM_MO_13": 919633.799840491}, "Forearm": {"20180601_SherrattM_MO_02": 447388.443449593, "20180601_SherrattM_MO_04": 528333.096537257, "20180601_SherrattM_MO_06": 563159.287410621, "20180601_SherrattM_MO_08": 648195.50197655, "20180601_SherrattM_MO_10": 572520.193905669, "20180601_SherrattM_MO_12": 595834.660366395, "20180601_SherrattM_MO_14": 545947.049062156}}, "Dermis": {"Fold": "1.44", "p val": 0.0178510584, "Buttock": {"20180601_SherrattM_MO_15": 269990.80924417, "20180601_SherrattM_MO_17": 270526.511606081, "20180601_SherrattM_MO_19": 294475.794337714, "20180601_SherrattM_MO_21": 1666379.63893518, "20180601_SherrattM_MO_23": 292265.503811643, "20180601_SherrattM_MO_25": 412418.266422807, "20180601_SherrattM_MO_27": 876214.248374318}, "Forearm": {"20180601_SherrattM_MO_16": 772946.735941471, "20180601_SherrattM_MO_18": 470802.157556582, "20180601_SherrattM_MO_20": 546884.520741749, "20180601_SherrattM_MO_22": 1264136.35374212, "20180601_SherrattM_MO_24": 706130.695323463, "20180601_SherrattM_MO_26": 1023920.75552289, "20180601_SherrattM_MO_28": 1091487.46763474}}}], "Protein_Alt": [{"Names": "14-3-3 protein theta"}, {"Names": "14-3-3 protein T-cell"}, {"Names": "14-3-3 protein tau"}, {"Names": "Protein HS1"}, {"Names": "YWHAQ"}], "Bliss": true, "Photoageing_Significant": true}, {"Uniprot_ID": "1433Z_HUMAN", "ProteinName": "14-3-3 protein zeta/delta", "UniProtAccession": "P63104", "ExperimentalEvidence": "Mass Spectrometry, Immunohistochemistry", "GeneName": "YWHAZ", "SkinSite": "Breast", "ProteinLocation": "Dermal/Epidermal", "Age": "", "Sex": "B", "AssociatedDisease_Mutation": "", "DOI": "10.1074/mcp.M700334-MCP200, 10.1016/j.jaci.2010.10.033, http://www.proteinatlas.org/ENSG00000164924-YWHAZ/tissue/skin", "QualityRating": "**", "Frequency": "", "Subcellular_location_final": "intracellular", "Uniprot_AC": "   P63104; A8K1N0; B7Z465; P29213; P29312; Q32P43; Q5XJ08; Q6GPI2;   Q6IN74; Q6NUR9; Q6P3U9; Q86V33;", "Protein_Evidence": [{"DOI": "10.1074/mcp.M700334-MCP200"}, {"DOI": "10.1016/j.jaci.2010.10.033"}, {"DOI": "http://www.proteinatlas.org/ENSG00000164924-YWHAZ/tissue/skin"}], "Protein_Quant": [{"Epidermis": {"Fold": 1.95, "p val": 0.0124994793, "Buttock": {"20180601_SherrattM_MO_01": 1924544.02459595, "20180601_SherrattM_MO_03": 1254327.8852624, "20180601_SherrattM_MO_05": 2766886.60837924, "20180601_SherrattM_MO_07": 2613347.71014167, "20180601_SherrattM_MO_09": 820311.484188669, "20180601_SherrattM_MO_11": 4360786.86054634, "20180601_SherrattM_MO_13": 3379320.39644493}, "Forearm": {"20180601_SherrattM_MO_02": 1330306.88524657, "20180601_SherrattM_MO_04": 819182.291502453, "20180601_SherrattM_MO_06": 1121844.74323014, "20180601_SherrattM_MO_08": 1024276.40528682, "20180601_SherrattM_MO_10": 1036891.28663663, "20180601_SherrattM_MO_12": 2220238.48949038, "20180601_SherrattM_MO_14": 1242102.31859065}}, "Dermis": {"Fold": "1.38", "p val": 0.0170268339, "Buttock": {"20180601_SherrattM_MO_15": 6183721.88654613, "20180601_SherrattM_MO_17": 7836269.34170775, "20180601_SherrattM_MO_19": 6374846.79796247, "20180601_SherrattM_MO_21": 20212442.5900526, "20180601_SherrattM_MO_23": 7076251.86339573, "20180601_SherrattM_MO_25": 11397000.9272243, "20180601_SherrattM_MO_27": 15660083.0885586}, "Forearm": {"20180601_SherrattM_MO_16": 11282652.8875366, "20180601_SherrattM_MO_18": 9692118.3417227, "20180601_SherrattM_MO_20": 9098713.79595755, "20180601_SherrattM_MO_22": 17461023.1043768, "20180601_SherrattM_MO_24": 14740648.3709898, "20180601_SherrattM_MO_26": 14690142.5962092, "20180601_SherrattM_MO_28": 26226254.7740237}}}], "Protein_Alt": [{"Names": "14-3-3 protein zeta/delta"}, {"Names": "Protein kinase C inhibitor protein 1"}, {"Names": "KCIP-1"}, {"Names": "YWHAZ"}], "Bliss": true, "Photoageing_Significant": true}, {"Uniprot_ID": "1A01_HUMAN", "ProteinName": "HLA class I histocompatibility antigen, A-1 alpha chain", "UniProtAccession": "P30443", "ExperimentalEvidence": "Mass Spectrometry", "GeneName": "HLA-A", "SkinSite": "Digit", "ProteinLocation": "", "Age": "", "Sex": "", "AssociatedDisease_Mutation": "", "DOI": "10.1186/s12575-016-0045-y", "QualityRating": "*", "Frequency": "", "Subcellular_location_final": "intracellular", "Uniprot_AC": "   P30443; O77964; O78171; Q9MYA3; Q9TP25; Q9TQP5;", "Protein_Evidence": [{"DOI": "10.1186/s12575-016-0045-y"}], "Protein_Quant": [{"Epidermis": null, "Dermis": {"Fold": "1.81", "p val": 0.0561534991, "Buttock": {"20180601_SherrattM_MO_15": 85.2556828818, "20180601_SherrattM_MO_17": 14899.0353923418, "20180601_SherrattM_MO_19": 22585.4759371942, "20180601_SherrattM_MO_21": 467223.454686369, "20180601_SherrattM_MO_23": 37394.5009341405, "20180601_SherrattM_MO_25": 34974.5774154868, "20180601_SherrattM_MO_27": 281407.599109285}, "Forearm": {"20180601_SherrattM_MO_16": 2971.6313914285, "20180601_SherrattM_MO_18": 15313.276216423, "20180601_SherrattM_MO_20": 44481.4071318249, "20180601_SherrattM_MO_22": 836874.388312858, "20180601_SherrattM_MO_24": 88810.5135728054, "20180601_SherrattM_MO_26": 93682.2300981022, "20180601_SherrattM_MO_28": 471478.00215154}}}], "Protein_Alt": [], "Bliss": true, "Photoageing_Significant": false}, {"Uniprot_ID": "1A02_HUMAN", "ProteinName": "HLA class I histocompatibility antigen, A-2 alpha chain", "UniProtAccession": "P01892", "ExperimentalEvidence": "Mass Spectrometry", "GeneName": "HLA-A", "SkinSite": "Digit", "ProteinLocation": "", "Age": "", "Sex": "", "AssociatedDisease_Mutation": "", "DOI": "10.1186/s12575-016-0045-y", "QualityRating": "*", "Frequency": "", "Subcellular_location_final": "intracellular", "Uniprot_AC": "   P01892; O19619; P06338; P10313; P30444; P30445; P30446; P30514;   Q29680; Q29837; Q29899; Q95352; Q95380; Q9TPX8; Q9TPX9; Q9TPY0;   Q9TQH5; Q9TQI3;", "Protein_Evidence": [{"DOI": "10.1186/s12575-016-0045-y"}], "Protein_Quant": [{"Epidermis": null, "Dermis": null}], "Protein_Alt": [], "Bliss": true, "Photoageing_Significant": false}, {"Uniprot_ID": "1A03_HUMAN", "ProteinName": "HLA class I histocompatibility antigen, A-3 alpha chain", "UniProtAccession": "P04439", "ExperimentalEvidence": "Mass Spectrometry", "GeneName": "HLA-A", "SkinSite": "Digit", "ProteinLocation": "", "Age": "", "Sex": "", "AssociatedDisease_Mutation": "", "DOI": "10.1186/s12575-016-0045-y", "QualityRating": "*", "Frequency": "", "Subcellular_location_final": "intracellular", "Uniprot_AC": "   P04439; O19546; O19756; Q65A82; Q9GJE6; Q9GJE7; Q9GJE8; Q9MYE6;   Q9MYG4; Q9TPR8;", "Protein_Evidence": [{"DOI": "10.1186/s12575-016-0045-y"}], "Protein_Quant": [{"Epidermis": null, "Dermis": null}], "Protein_Alt": [], "Bliss": true, "Photoageing_Significant": false}, {"Uniprot_ID": "1A11_HUMAN", "ProteinName": "HLA class I histocompatibility antigen, A-11 alpha chain", "UniProtAccession": "P13746", "ExperimentalEvidence": "Mass Spectrometry", "GeneName": "HLA-A", "SkinSite": "Digit", "ProteinLocation": "", "Age": "", "Sex": "", "AssociatedDisease_Mutation": "", "DOI": "10.1186/s12575-016-0045-y", "QualityRating": "*", "Frequency": "", "Subcellular_location_final": "intracellular", "Uniprot_AC": "   P13746; O19605; O19606; Q29747; Q29835; Q5S3G1; Q9BCN0; Q9MYI5;   Q9TQE9; Q9TQP6; Q9TQP7;", "Protein_Evidence": [{"DOI": "10.1186/s12575-016-0045-y"}], "Protein_Quant": [{"Epidermis": null, "Dermis": null}], "Protein_Alt": [], "Bliss": true, "Photoageing_Significant": false}, {"Uniprot_ID": "1A23_HUMAN", "ProteinName": "HLA class I histocompatibility antigen, A-23 alpha chain", "UniProtAccession": "P30447", "ExperimentalEvidence": "Mass Spectrometry", "GeneName": "HLA-A", "SkinSite": "Digit", "ProteinLocation": "", "Age": "", "Sex": "", "AssociatedDisease_Mutation": "", "DOI": "10.1186/s12575-016-0045-y", "QualityRating": "*", "Frequency": "", "Subcellular_location_final": "intracellular", "Uniprot_AC": "   P30447; Q9TQF1; Q9TQF8; Q9TQG5; Q9TQM6;", "Protein_Evidence": [{"DOI": "10.1186/s12575-016-0045-y"}], "Protein_Quant": [{"Epidermis": null, "Dermis": null}], "Protein_Alt": [], "Bliss": true, "Photoageing_Significant": false}, {"Uniprot_ID": "1A24_HUMAN", "ProteinName": "HLA class I histocompatibility antigen, A-24 alpha chain", "UniProtAccession": "P05534", "ExperimentalEvidence": "Mass Spectrometry", "GeneName": "HLA-A", "SkinSite": "Digit", "ProteinLocation": "", "Age": "", "Sex": "", "AssociatedDisease_Mutation": "", "DOI": "10.1186/s12575-016-0045-y", "QualityRating": "*", "Frequency": "", "Subcellular_location_final": "intracellular", "Uniprot_AC": "   P05534; P30448; P30449; Q29908; Q29909; Q29910; Q95355;", "Protein_Evidence": [{"DOI": "10.1186/s12575-016-0045-y"}], "Protein_Quant": [{"Epidermis": null, "Dermis": null}], "Protein_Alt": [], "Bliss": true, "Photoageing_Significant": false}, {"Uniprot_ID": "1A25_HUMAN", "ProteinName": "HLA class I histocompatibility antigen, A-25 alpha chain", "UniProtAccession": "P18462", "ExperimentalEvidence": "Mass Spectrometry", "GeneName": "HLA-A", "SkinSite": "Digit", "ProteinLocation": "", "Age": "", "Sex": "", "AssociatedDisease_Mutation": "", "DOI": "10.1186/s12575-016-0045-y", "QualityRating": "*", "Frequency": "", "Subcellular_location_final": "intracellular", "Uniprot_AC": "   P18462; Q95362; Q9TQE8; Q9TQG0; Q9UQU3;", "Protein_Evidence": [{"DOI": "10.1186/s12575-016-0045-y"}], "Protein_Quant": [{"Epidermis": null, "Dermis": null}], "Protein_Alt": [], "Bliss": true, "Photoageing_Significant": false}, {"Uniprot_ID": "1A26_HUMAN", "ProteinName": "HLA class I histocompatibility antigen, A-26 alpha chain", "UniProtAccession": "P30450", "ExperimentalEvidence": "Mass Spectrometry", "GeneName": "HLA-A", "SkinSite": "Digit", "ProteinLocation": "", "Age": "", "Sex": "", "AssociatedDisease_Mutation": "", "DOI": "10.1186/s12575-016-0045-y", "QualityRating": "*", "Frequency": "", "Subcellular_location_final": "intracellular", "Uniprot_AC": "   P30450; O02963; O78073; P79563; Q30208; Q31623; Q95377; Q9BD15;   Q9BD19; Q9MW42; Q9TQK5;", "Protein_Evidence": [{"DOI": "10.1186/s12575-016-0045-y"}], "Protein_Quant": [{"Epidermis": null, "Dermis": null}], "Protein_Alt": [], "Bliss": true, "Photoageing_Significant": false}, {"Uniprot_ID": "1A29_HUMAN", "ProteinName": "HLA class I histocompatibility antigen, A-29 alpha chain", "UniProtAccession": "P30512", "ExperimentalEvidence": "Mass Spectrometry", "GeneName": "HLA-A", "SkinSite": "Digit", "ProteinLocation": "", "Age": "", "Sex": "", "AssociatedDisease_Mutation": "", "DOI": "10.1186/s12575-016-0045-y", "QualityRating": "*", "Frequency": "", "Subcellular_location_final": "intracellular", "Uniprot_AC": "   P30512; O02955; O19687; O98011; P30451; P79562;", "Protein_Evidence": [{"DOI": "10.1186/s12575-016-0045-y"}], "Protein_Quant": [{"Epidermis": null, "Dermis": null}], "Protein_Alt": [], "Bliss": true, "Photoageing_Significant": false}, {"Uniprot_ID": "1A30_HUMAN", "ProteinName": "HLA class I histocompatibility antigen, A-30 alpha chain", "UniProtAccession": "P16188", "ExperimentalEvidence": "Mass Spectrometry", "GeneName": "HLA-A", "SkinSite": "Breast", "ProteinLocation": "Epidermal", "Age": "", "Sex": "F", "AssociatedDisease_Mutation": "", "DOI": "10.1074/mcp.M700334-MCP200", "QualityRating": "*", "Frequency": "", "Subcellular_location_final": "intracellular", "Uniprot_AC": "   P16188; O19598; O62921; P30452; Q9UIP7;", "Protein_Evidence": [{"DOI": "10.1074/mcp.M700334-MCP200"}], "Protein_Quant": [{"Epidermis": null, "Dermis": null}], "Protein_Alt": [], "Bliss": true, "Photoageing_Significant": false}, {"Uniprot_ID": "1A31_HUMAN", "ProteinName": "HLA class I histocompatibility antigen, A-31 alpha chain", "UniProtAccession": "P16189", "ExperimentalEvidence": "Mass Spectrometry", "GeneName": "HLA-A", "SkinSite": "Digit", "ProteinLocation": "", "Age": "", "Sex": "", "AssociatedDisease_Mutation": "", "DOI": "10.1186/s12575-016-0045-y", "QualityRating": "*", "Frequency": "", "Subcellular_location_final": "intracellular", "Uniprot_AC": "   P16189; O62924; O98009; O98137; Q8MHM1; Q9TPQ3; Q9TQ24; Q9UQU6;   Q9UQU7;", "Protein_Evidence": [{"DOI": "10.1186/s12575-016-0045-y"}], "Protein_Quant": [{"Epidermis": null, "Dermis": null}], "Protein_Alt": [], "Bliss": true, "Photoageing_Significant": false}, {"Uniprot_ID": "1A32_HUMAN", "ProteinName": "HLA class I histocompatibility antigen, A-32 alpha chain", "UniProtAccession": "P10314", "ExperimentalEvidence": "Mass Spectrometry", "GeneName": "HLA-A", "SkinSite": "Digit", "ProteinLocation": "", "Age": "", "Sex": "", "AssociatedDisease_Mutation": "", "DOI": "10.1186/s12575-016-0045-y", "QualityRating": "*", "Frequency": "", "Subcellular_location_final": "intracellular", "Uniprot_AC": "   P10314; O77937; Q29838; Q8MHN9; Q9MYE9; Q9MYG5; Q9TQF5; Q9TQF9;", "Protein_Evidence": [{"DOI": "10.1186/s12575-016-0045-y"}], "Protein_Quant": [{"Epidermis": null, "Dermis": null}], "Protein_Alt": [], "Bliss": true, "Photoageing_Significant": false}, {"Uniprot_ID": "1A33_HUMAN", "ProteinName": "HLA class I histocompatibility antigen, A-33 alpha chain", "UniProtAccession": "P16190", "ExperimentalEvidence": "Mass Spectrometry", "GeneName": "HLA-A", "SkinSite": "Digit", "ProteinLocation": "", "Age": "", "Sex": "", "AssociatedDisease_Mutation": "", "DOI": "10.1186/s12575-016-0045-y", "QualityRating": "*", "Frequency": "", "Subcellular_location_final": "intracellular", "Uniprot_AC": "   P16190; O02939; O02954;", "Protein_Evidence": [{"DOI": "10.1186/s12575-016-0045-y"}], "Protein_Quant": [{"Epidermis": null, "Dermis": null}], "Protein_Alt": [], "Bliss": true, "Photoageing_Significant": false}, {"Uniprot_ID": "1A34_HUMAN", "ProteinName": "HLA class I histocompatibility antigen, A-34 alpha chain", "UniProtAccession": "P30453", "ExperimentalEvidence": "Mass Spectrometry", "GeneName": "HLA-A", "SkinSite": "Digit", "ProteinLocation": "", "Age": "", "Sex": "", "AssociatedDisease_Mutation": "", "DOI": "10.1186/s12575-016-0045-y", "QualityRating": "*", "Frequency": "", "Subcellular_location_final": "intracellular", "Uniprot_AC": "   P30453; P30454;", "Protein_Evidence": [{"DOI": "10.1186/s12575-016-0045-y"}], "Protein_Quant": [{"Epidermis": null, "Dermis": null}], "Protein_Alt": [], "Bliss": true, "Photoageing_Significant": false}, {"Uniprot_ID": "1A36_HUMAN", "ProteinName": "HLA class I histocompatibility antigen, A-36 alpha chain", "UniProtAccession": "P30455", "ExperimentalEvidence": "Mass Spectrometry", "GeneName": "HLA-A", "SkinSite": "Digit", "ProteinLocation": "", "Age": "", "Sex": "", "AssociatedDisease_Mutation": "", "DOI": "10.1186/s12575-016-0045-y", "QualityRating": "*", "Frequency": "", "Subcellular_location_final": "intracellular", "Uniprot_AC": "   P30455; Q9MY89;", "Protein_Evidence": [{"DOI": "10.1186/s12575-016-0045-y"}], "Protein_Quant": [{"Epidermis": null, "Dermis": null}], "Protein_Alt": [], "Bliss": true, "Photoageing_Significant": false}, {"Uniprot_ID": "1A43_HUMAN", "ProteinName": "HLA class I histocompatibility antigen, A-43 alpha chain", "UniProtAccession": "P30456", "ExperimentalEvidence": "Mass Spectrometry", "GeneName": "HLA-A", "SkinSite": "Digit", "ProteinLocation": "", "Age": "", "Sex": "", "AssociatedDisease_Mutation": "", "DOI": "10.1186/s12575-016-0045-y", "QualityRating": "*", "Frequency": "", "Subcellular_location_final": "intracellular", "Uniprot_AC": "   P30456; O19509;", "Protein_Evidence": [{"DOI": "10.1186/s12575-016-0045-y"}], "Protein_Quant": [{"Epidermis": null, "Dermis": null}], "Protein_Alt": [], "Bliss": true, "Photoageing_Significant": false}, {"Uniprot_ID": "1A66_HUMAN", "ProteinName": "HLA class I histocompatibility antigen, A-66 alpha chain", "UniProtAccession": "P30457", "ExperimentalEvidence": "Mass Spectrometry", "GeneName": "HLA-A", "SkinSite": "Digit", "ProteinLocation": "", "Age": "", "Sex": "", "AssociatedDisease_Mutation": "", "DOI": "10.1186/s12575-016-0045-y", "QualityRating": "*", "Frequency": "", "Subcellular_location_final": "intracellular", "Uniprot_AC": "   P30457; P30458;", "Protein_Evidence": [{"DOI": "10.1186/s12575-016-0045-y"}], "Protein_Quant": [{"Epidermis": null, "Dermis": null}], "Protein_Alt": [], "Bliss": true, "Photoageing_Significant": false}, {"Uniprot_ID": "1A68_HUMAN", "ProteinName": "HLA class I histocompatibility antigen, A-68 alpha chain", "UniProtAccession": "P01891", "ExperimentalEvidence": "Mass Spectrometry", "GeneName": "HLA-A", "SkinSite": "Digit", "ProteinLocation": "", "Age": "", "Sex": "", "AssociatedDisease_Mutation": "", "DOI": "10.1186/s12575-016-0045-y", "QualityRating": "*", "Frequency": "", "Subcellular_location_final": "intracellular", "Uniprot_AC": "   P01891; O19673; O19695; O19794; O19795; O43907; O77938; O98010;   P10315; P79505; Q9MYA5; Q9MYC4; Q9TQG7; Q9TQN5; Q9UIN2;", "Protein_Evidence": [{"DOI": "10.1186/s12575-016-0045-y"}], "Protein_Quant": [{"Epidermis": null, "Dermis": null}], "Protein_Alt": [], "Bliss": true, "Photoageing_Significant": false}]}